Biostat 203B Homework 2
…
How many unique subject_id? Can a subject_id have multiple ICU stays?

icustays_tble %>%
  distinct(subject_id) %>%
  nrow()

[1] 53150

There are 53150 unique subject_id.

icustays_tble %>%
  group_by(subject_id) %>%
  summarise(n = n()) 

# A tibble: 53,150 × 2
   subject_id     n
        <dbl> <int>
 1   10000032     1
 2   10000980     1
 3   10001217     2
 4   10001725     1
 5   10001884     1
 6   10002013     1
 7   10002155     3
 8   10002223     1
 9   10002348     1
10   10002428     4
# … with 53,140 more rows
…
Most people only have one time ICU stay, about 40000 people.

For each subject_id, let’s only keep the first ICU stay in the tibble icustays_tble. (Hint: slice_min and slice_max may take long. Think alternative ways to achieve the same function.)

icustays_tble <- icustays_tble %>%
  group_by(subject_id, ) %>%
  arrange(intime) %>%
  filter(row_number() == 1) %>%
  print(width = Inf)

# A tibble: 53,150 × 8
# Groups:   subject_id [53,150]
   subject_id  hadm_id  stay_id first_careunit                                  
        <dbl>    <dbl>    <dbl> <chr>                                           
 1   18106347 24305596 30588857 Cardiac Vascular Intensive Care Unit (CVICU)    
 2   17195991 23542772 38319097 Surgical Intensive Care Unit (SICU)             
 3   16284044 23864737 36817845 Cardiac Vascular Intensive Care Unit (CVICU)    
 4   18122666 23883987 39753527 Medical/Surgical Intensive Care Unit (MICU/SICU)
 5   18780420 28977824 32140208 Neuro Surgical Intensive Care Unit (Neuro SICU) 
 6   15092543 28768907 38339174 Neuro Intermediate                              
 7   13201095 28453791 39953418 Coronary Care Unit (CCU)                        
 8   12770182 20446666 34901199 Medical Intensive Care Unit (MICU)              
 9   12224263 23294937 37546608 Trauma SICU (TSICU)                             
10   19564586 22461053 37310703 Coronary Care Unit (CCU)                        
   last_careunit                                    intime             
   <chr>                                            <dttm>             
 1 Cardiac Vascular Intensive Care Unit (CVICU)     2110-01-11 10:16:06
 2 Surgical Intensive Care Unit (SICU)              2110-01-12 00:54:00
 3 Cardiac Vascular Intensive Care Unit (CVICU)     2110-01-13 09:09:40
 4 Medical/Surgical Intensive Care Unit (MICU/SICU) 2110-01-14 07:22:00
 5 Neuro Surgical Intensive Care Unit (Neuro SICU)  2110-01-17 00:28:00
 6 Neuro Intermediate                               2110-01-17 22:49:13
 7 Coronary Care Unit (CCU)                         2110-01-18 14:46:27
 8 Medical Intensive Care Unit (MICU)               2110-01-18 17:47:47
 9 Trauma SICU (TSICU)                              2110-01-20 14:01:00
10 Coronary Care Unit (CCU)                         2110-01-20 21:06:30
   outtime               los
   <dttm>              <dbl>
 1 2110-01-12 17:17:47 1.29 
 2 2110-01-14 22:07:39 2.88 
 3 2110-01-15 21:45:33 2.52 
 4 2110-01-15 13:08:36 1.24 
 5 2110-01-18 01:21:22 1.04 
 6 2110-01-18 17:18:51 0.771
 7 2110-01-25 12:42:11 6.91 
 8 2110-01-20 22:25:09 2.19 
 9 2110-01-21 17:21:26 1.14 
10 2110-01-22 16:08:24 1.79 
# … with 53,140 more rows
…
Let’s only keep the admissions that have a match in icustays_tble according to subject_id and hadmi_id.

admissions_tble <-
  admissions_tble %>%
  semi_join(icustays_tble, by = c("subject_id", "hadm_id")) %>%
  print(width = Inf)

# A tibble: 53,150 × 15
   subject_id  hadm_id admittime           dischtime          
        <dbl>    <dbl> <dttm>              <dttm>             
 1   10222255 28200985 2120-11-20 20:25:00 2120-11-22 13:00:00
 2   14485852 28712010 2113-10-31 00:23:00 2113-11-04 16:50:00
 3   18709254 23758948 2195-10-12 01:31:00 2195-10-12 13:51:00
 4   16837807 23526268 2151-03-19 06:09:00 2151-03-19 07:20:00
 5   17642680 27734285 2116-05-29 12:48:00 2116-05-30 12:31:00
 6   18230965 21251728 2142-03-12 20:00:00 2142-03-17 15:26:00
 7   17374121 27667114 2115-07-22 07:15:00 2115-07-24 17:50:00
 8   13346506 28533404 2181-11-19 14:32:00 2181-11-22 18:47:00
 9   18030332 24679656 2152-07-22 21:28:00 2152-07-27 16:49:00
10   14328744 29576470 2126-08-20 09:26:00 2126-08-21 11:36:00
   deathtime           admission_type     admission_location    
   <dttm>              <chr>              <chr>                 
 1 NA                  EU OBSERVATION     TRANSFER FROM HOSPITAL
 2 NA                  EW EMER.           EMERGENCY ROOM        
 3 NA                  EU OBSERVATION     EMERGENCY ROOM        
 4 2151-03-19 07:20:00 EU OBSERVATION     EMERGENCY ROOM        
 5 NA                  EU OBSERVATION     WALK-IN/SELF REFERRAL 
 6 NA                  URGENT             PHYSICIAN REFERRAL    
 7 NA                  DIRECT OBSERVATION PHYSICIAN REFERRAL    
 8 NA                  EU OBSERVATION     EMERGENCY ROOM        
 9 NA                  URGENT             TRANSFER FROM HOSPITAL
10 NA                  EU OBSERVATION     EMERGENCY ROOM        
   discharge_location insurance language marital_status ethnicity
   <chr>              <chr>     <chr>    <chr>          <chr>    
 1 <NA>               Other     ENGLISH  MARRIED        WHITE    
 2 <NA>               Other     ENGLISH  SINGLE         WHITE    
 3 <NA>               Medicaid  ENGLISH  WIDOWED        ASIAN    
 4 <NA>               Medicare  ENGLISH  SINGLE         WHITE    
 5 <NA>               Other     ENGLISH  SINGLE         WHITE    
 6 HOME               Other     ENGLISH  MARRIED        WHITE    
 7 <NA>               Other     ENGLISH  MARRIED        WHITE    
 8 <NA>               Other     ENGLISH  MARRIED        WHITE    
 9 HOME               Other     ENGLISH  MARRIED        UNKNOWN  
10 <NA>               Other     ENGLISH  MARRIED        WHITE    
   edregtime           edouttime           hospital_expire_flag
   <dttm>              <dttm>                             <dbl>
 1 2120-11-20 18:07:00 2120-11-21 20:25:00                    0
 2 2113-10-30 19:48:00 2113-10-31 05:10:00                    0
 3 2195-10-11 18:40:00 2195-10-12 02:47:00                    0
 4 2151-03-19 02:55:00 2151-03-19 06:59:00                    1
 5 2116-05-29 10:05:00 2116-05-30 01:17:00                    0
 6 NA                  NA                                     0
 7 NA                  NA                                     0
 8 2181-11-19 10:51:00 2181-11-19 15:12:00                    0
 9 NA                  NA                                     0
10 2126-08-19 23:01:00 2126-08-20 10:14:00                    0
# … with 53,140 more rows
…
Import patients.csv.gz (https://mimic.mit.edu/docs/iv/modules/hosp/patients/) as a tibble patients_tble and only keep the patients who have a match in icustays_tble (according to subject_id).

patients_tble <- read_csv(str_c(mimic_path, "/core/patients.csv.gz"))
patients_tble <-
  patients_tble %>%
  semi_join(icustays_tble, by = "subject_id") %>%
  print(width = Inf)

# A tibble: 53,150 × 6
   subject_id gender anchor_age anchor_year anchor_year_group dod       
        <dbl> <chr>       <dbl>       <dbl> <chr>             <date>    
 1   10018928 F              31        2125 2008 - 2010       NA        
 2   10076543 F              78        2187 2008 - 2010       NA        
 3   10098428 F              85        2119 2008 - 2010       NA        
 4   10127185 M              60        2141 2008 - 2010       NA        
 5   10148710 M              67        2137 2008 - 2010       NA        
 6   10156486 F              75        2124 2017 - 2019       NA        
 7   10159585 M              59        2146 2008 - 2010       2154-04-16
 8   10171525 F              27        2115 2014 - 2016       NA        
 9   10196360 M              57        2118 2011 - 2013       NA        
10   10227823 M              45        2156 2014 - 2016       NA        
# … with 53,140 more rows
…
  "51221",
  "51301",
  "50931",
  "50960",
  "50893"
)
d_labitems_tble <-
  read_csv(str_c(mimic_path, "/hosp/d_labitems.csv.gz"))
labevents_tble <-
  labevents %>%
  semi_join(icustays_tble, by = c("subject_id")) %>%
  filter(itemid %in% measure)
labevents_tble

# A tibble: 16,698,462 × 4
   subject_id itemid charttime           valuenum
        <dbl>  <dbl> <dttm>                 <dbl>
 1   10003700  50882 2162-11-15 17:00:00     27  
 2   10003700  50902 2162-11-15 17:00:00    103  
 3   10003700  50912 2162-11-15 17:00:00      1  
 4   10003700  50931 2162-11-15 17:00:00     93  
 5   10003700  50971 2162-11-15 17:00:00      4.1
 6   10003700  50983 2162-11-15 17:00:00    141  
 7   10003700  51221 2162-11-15 17:00:00     40  
 8   10003700  51301 2162-11-15 17:00:00      6.7
 9   10003700  51221 2165-04-24 03:40:00     41  
10   10003700  51301 2165-04-24 03:40:00      5.8
# … with 16,698,452 more rows
Hint: labevents.csv.gz is a data file too big to be read in by the read_csv function in its default setting. Utilize the col_select option in the read_csv function to reduce the memory burden. It took my computer 5-10 minutes to ingest this file. If your computer really has trouble importing labevents.csv.gz, you can import from the reduced data file labevents_filtered_itemid.csv.gz.

Further restrict labevents_tble to the first lab measurement during the ICU stay.

labevents_tble <- labevents_tble %>%
  left_join(select(icustays_tble, subject_id, intime, outtime),
            by = c("subject_id")) %>%
  filter(charttime >= intime, charttime <= outtime) %>%
  group_by(subject_id, itemid) %>%
  arrange(charttime, .by_group = TRUE) %>%
  slice_head(n = 1) %>%
  ungroup() %>%
  print(width = Inf)

# A tibble: 509,822 × 6
   subject_id itemid charttime           valuenum intime             
        <dbl>  <dbl> <dttm>                 <dbl> <dttm>             
 1   10000032  50882 2180-07-23 21:45:00     21   2180-07-23 14:00:00
 2   10000032  50893 2180-07-23 21:45:00      9.3 2180-07-23 14:00:00
 3   10000032  50902 2180-07-23 21:45:00    102   2180-07-23 14:00:00
 4   10000032  50912 2180-07-23 21:45:00      0.5 2180-07-23 14:00:00
 5   10000032  50931 2180-07-23 21:45:00    115   2180-07-23 14:00:00
 6   10000032  50960 2180-07-23 21:45:00      2.3 2180-07-23 14:00:00
 7   10000032  50971 2180-07-23 21:45:00      4.7 2180-07-23 14:00:00
 8   10000032  50983 2180-07-23 21:45:00    132   2180-07-23 14:00:00
 9   10001217  50882 2157-11-21 03:16:00     23   2157-11-20 19:18:02
10   10001217  50893 2157-11-21 03:16:00      8.2 2157-11-20 19:18:02
   outtime            
   <dttm>             
 1 2180-07-23 23:50:47
 2 2180-07-23 23:50:47
 3 2180-07-23 23:50:47
 4 2180-07-23 23:50:47
 5 2180-07-23 23:50:47
 6 2180-07-23 23:50:47
 7 2180-07-23 23:50:47
 8 2180-07-23 23:50:47
 9 2157-11-21 22:08:00
10 2157-11-21 22:08:00
# … with 509,812 more rows
…
We are interested in the vitals for ICU patients: heart rate (220045), mean non-invasive blood pressure (220181), systolic non-invasive blood pressure (220179), body temperature in Fahrenheit (223761), and respiratory rate (220210). Retrieve a subset of chartevents.csv.gz only containing these items for the patients in icustays_tble as a tibble chartevents_tble.

chartevents <-
  read_csv(str_c(mimic_path, "/icu/chartevents_filtered_itemid.csv.gz"))
vitals <- c("220045", "220181", "220179", "223761", "220210")
chartevents_tble <-
  chartevents %>%
  semi_join(icustays_tble, by = "subject_id") %>%
  filter(itemid %in% vitals)
chartevents_tble

# A tibble: 23,679,058 × 6
   subject_id  hadm_id  stay_id charttime           itemid valuenum
        <dbl>    <dbl>    <dbl> <dttm>               <dbl>    <dbl>
 1   10003700 28623837 30600691 2165-04-24 05:28:00 220179    152  
 2   10003700 28623837 30600691 2165-04-24 05:28:00 220181    110  
 3   10003700 28623837 30600691 2165-04-24 05:30:00 220045     65  
 4   10003700 28623837 30600691 2165-04-24 05:30:00 220210     14  
 5   10003700 28623837 30600691 2165-04-24 05:38:00 223761     97.6
 6   10003700 28623837 30600691 2165-04-24 06:00:00 220045     56  
 7   10003700 28623837 30600691 2165-04-24 06:00:00 220179    126  
 8   10003700 28623837 30600691 2165-04-24 06:00:00 220181     88  
 9   10003700 28623837 30600691 2165-04-24 06:00:00 220210     14  
10   10003700 28623837 30600691 2165-04-24 06:09:00 220045     55  
# … with 23,679,048 more rows
Hint: chartevents.csv.gz is a data file too big to be read in by the read_csv function in its default setting. Utilize the col_select option in the read_csv function to reduce the memory burden. It took my computer >15 minutes to ingest this file. If your computer really has trouble importing chartevents.csv.gz, you can import from the reduced data file chartevents_filtered_itemid.csv.gz.

Further restrict chartevents_tble to the first vital measurement during the ICU stay.

chartevents_tble <- chartevents_tble %>%
  left_join(select(icustays_tble, subject_id, intime, outtime),
            by = c("subject_id")) %>%
  filter(charttime >= intime, charttime <= outtime) %>%
  group_by(subject_id, itemid) %>%
  arrange(charttime, .by_group = TRUE) %>%
  slice_head(n = 1) %>%
  ungroup()
chartevents_tble

# A tibble: 263,332 × 8
   subject_id  hadm_id  stay_id charttime           itemid valuenum
        <dbl>    <dbl>    <dbl> <dttm>               <dbl>    <dbl>
 1   10000032 29079034 39553978 2180-07-23 14:12:00 220045     91  
 2   10000032 29079034 39553978 2180-07-23 14:11:00 220179     84  
 3   10000032 29079034 39553978 2180-07-23 14:11:00 220181     56  
 4   10000032 29079034 39553978 2180-07-23 14:12:00 220210     24  
 5   10000032 29079034 39553978 2180-07-23 14:00:00 223761     98.7
 6   10000980 26913865 39765666 2189-06-27 08:56:00 220045     77  
 7   10000980 26913865 39765666 2189-06-27 08:55:00 220179    150  
 8   10000980 26913865 39765666 2189-06-27 08:55:00 220181     92  
 9   10000980 26913865 39765666 2189-06-27 08:54:00 220210     23  
10   10000980 26913865 39765666 2189-06-27 09:07:00 223761     98  
# … with 263,322 more rows, and 2 more variables: intime <dttm>, outtime <dttm>
…
